{
  "code": 0,
  "msg": null,
  "data": {
    "page": 1,
    "size": 2,
    "total": 7,
    "totalPage": 4,
    "list": [
      {
        "id": "2t0mvrAu",
        "name": "开迈斯充电站(杭州市宏程国际大厦交直流站)",
        "location": "浙江省杭州市江干区剧院路358-396号",
        "photo": "20240608/1717830206128.jpg",
        "chargeNum": 1,
        "availableChargeNum": 1,
        "operatorId": "ehteT4Ia",
        "operatorDTO": {
          "id": "ehteT4Ia",
          "name": "特来电",
          "description": "特来电新能源股份有限公司是新能源汽车充电设备制造商和充电网运营商，主要从事充电设备的研发、生产、销售及充电网的建设与运营，为用户提供充电系统解决方案及充电网运营服务。",
          "stationNum": 6
        }
      },
      {
        "id": "6uiT2l58",
        "name": "杭州巨化宾馆充电站",
        "location": "浙江省杭州市上城区江城路849号巨化宾馆",
        "photo": "20240107/1704595426817.jpg",
        "chargeNum": 3,
        "availableChargeNum": 3,
        "operatorId": "ehteT4Ia",
        "operatorDTO": {
          "id": "ehteT4Ia",
          "name": "特来电",
          "description": "特来电新能源股份有限公司是新能源汽车充电设备制造商和充电网运营商，主要从事充电设备的研发、生产、销售及充电网的建设与运营，为用户提供充电系统解决方案及充电网运营服务。",
          "stationNum": 6
        }
      }
    ],
    "param": {
      "id": null,
      "name": "",
      "location": null,
      "photo": null,
      "chargeNum": null,
      "availableChargeNum": null,
      "operatorId": "",
      "operatorDTO": null
    }
  }
}